Lab 3: COVID-19 – ess-330-lab3
…
safe_counties <- selected_data |>
  filter(new_cases < 100) |>
  arrange(-new_cases)

print(safe_counties)

# A tibble: 53 × 8
   date       county     state    fips  cases deaths new_cases new_deaths
   <date>     <chr>      <chr>    <chr> <dbl>  <dbl>     <dbl>      <dbl>
 1 2022-02-01 Crowley    Colorado 08025  2935     28        56          0
 2 2022-02-01 Montrose   Colorado 08085  8509    151        52          0
 3 2022-02-01 Fremont    Colorado 08043 13194    172        48          0
 4 2022-02-01 Las Animas Colorado 08071  3183     38        38          0
 5 2022-02-01 Alamosa    Colorado 08003  4122     58        33          0
 6 2022-02-01 Garfield   Colorado 08045 13472     83        30         -1
 7 2022-02-01 Logan      Colorado 08075  6402    104        25          0
 8 2022-02-01 Bent       Colorado 08011  2199     46        22          0
 9 2022-02-01 Chaffee    Colorado 08015  4035     40        22          0
10 2022-02-01 Morgan     Colorado 08087  5251    130        22          0
# ℹ 43 more rows
…
The top 5 counties include Lincoln, Alamosa, Mineral, Conejos, and Fremont.

Question 5: Death Toll

# Calculating the Death Toll Percentage
death_toll <- combined_pop_covid |>
  group_by(county) |>
  summarise(deathtollpercent = (deaths/DEATHS2021) * 100) |>
  ungroup() |>
  filter(deathtollpercent > 20) |>
  arrange(deathtollpercent)

print(death_toll)

# A tibble: 36 × 2
   county     deathtollpercent
   <chr>                 <dbl>
 1 Routt                  20.2
 2 Huerfano               20.9
 3 Douglas                21.2
 4 Grand                  22  
 5 Teller                 22.4
 6 Jefferson              22.6
 7 Broomfield             23.0
 8 Denver                 23.2
 9 Chaffee                23.3
10 Dolores                23.3
# ℹ 26 more rows
…
`summarise()` has grouped output by 'state'. You can override using the
`.groups` argument.

multistate <- multistate |>
  group_by(state) |>
  mutate(new_cases_rollmean = rollmean(new_cases, k = 7, fill = NA, align = "right")) |>
  ungroup()

print(multistate)

# A tibble: 3,192 × 5
   state   date       daily_cases new_cases new_cases_rollmean
   <chr>   <date>           <dbl>     <dbl>              <dbl>
 1 Alabama 2020-03-13           6        NA               NA  
 2 Alabama 2020-03-14          12         6               NA  
 3 Alabama 2020-03-15          23        11               NA  
 4 Alabama 2020-03-16          29         6               NA  
 5 Alabama 2020-03-17          39        10               NA  
 6 Alabama 2020-03-18          51        12               NA  
 7 Alabama 2020-03-19          78        27               NA  
 8 Alabama 2020-03-20         106        28               14.3
 9 Alabama 2020-03-21         131        25               17  
10 Alabama 2020-03-22         157        26               19.1
# ℹ 3,182 more rows
…
